{
    "manifest": {
        "override": {
            "url": "https://github.com/nirav-infostretch/electrode-native-manifest.git",
            "type": "partial"
        }
    },
    "requiredErnVersion": ">=0.26.0"
}